This is a problem file for the ILCS Maximum Satisfiability Problem. This problem is harder.


variables: 200
clauses: 1000

CLAUSES
30		-124		193
-54		116		-196
40		117		-149
-147		-41		28
5		24		-154
112		-94		104
-60		-175		-104
-84		106		193
194		69		-146
198		169		45
-59		176		-112
-123		102		-10
189		-119		-146
-113		3		145
104		-85		23
76		-180		177
18		-42		69
174		81		43
-199		-87		-186
-60		65		-3
-189		81		-138
-57		-23		148
156		160		-54
158		-114		-172
-151		-149		31
-113		131		-162
12		92		170
-14		-8		-19
45		-178		-197
-185		10		-161
4		76		28
-30		154		163
72		-119		59
34		-139		-114
190		121		145
-77		-57		-101
146		164		83
-134		105		-192
-77		-128		-102
140		193		195
-9		-22		-69
129		-131		66
191		108		-85
-196		-77		-167
191		-17		-43
-30		144		-124
-162		84		4
-18		65		-87
134		-160		-77
-5		143		198
-133		31		-160
133		-164		-192
86		-179		-122
137		21		199
-82		-12		53
121		149		145
154		-140		28
-164		-68		-20
-181		114		-40
52		-158		-68
-118		30		-133
-188		-162		-48
-178		-129		124
-24		-166		-102
-45		-148		-77
135		101		-170
-130		-191		-39
7		-106		-199
195		72		147
-99		12		-86
108		-146		-78
84		-112		-17
155		15		128
-175		56		-130
-138		-23		-60
1		-191		-79
-88		-170		-56
-174		93		-122
-200		-132		-99
-198		110		-196
-82		157		-154
-70		93		143
-181		195		-129
70		174		135
71		173		-169
174		-111		-75
5		74		-179
161		-19		171
165		-68		-65
-26		-15		-96
194		171		121
21		-26		-183
-146		193		-38
154		-150		51
-119		-182		110
31		14		82
-83		63		-123
167		176		194
43		45		-141
-43		-74		65
-105		-148		-132
200		127		-42
-37		-26		-13
-28		-182		-63
200		-10		146
44		102		-132
134		-141		-187
38		158		-17
10		-15		26
-99		-71		135
-178		-53		159
52		43		-91
142		7		-37
62		194		137
1		3		62
-124		-172		184
-127		-194		-198
-64		168		105
-37		175		-102
-170		23		23
149		72		2
-115		172		-4
-7		-154		-53
46		-36		125
-133		-106		-138
-30		46		-85
-60		83		180
-6		-73		-159
-39		172		170
-29		164		-141
-140		-55		-162
-193		-184		193
-103		6		-8
-60		26		-4
138		-33		-94
161		2		168
84		-132		-184
34		-87		-9
35		54		-25
35		-107		-9
-15		183		97
-87		138		-85
-161		-106		199
-190		-39		-160
37		78		-196
155		-94		-43
-135		-138		-54
6		15		-75
-55		-98		-155
69		-46		119
42		173		-82
34		-3		-39
24		164		171
-160		-176		179
56		-52		-67
-190		-56		-37
44		30		-151
197		169		-92
16		-67		-83
-9		-172		108
23		-127		-25
-103		173		77
12		188		-164
-44		92		-179
143		145		154
-174		14		27
-52		74		171
-70		197		-185
120		181		38
-88		186		-9
41		108		-117
-95		149		123
-74		-99		-153
7		22		-85
-67		83		-36
12		8		197
19		38		44
80		-154		89
140		149		109
-130		47		79
-60		102		-10
2		-74		69
-1		-107		176
2		37		-158
166		-29		-41
197		100		-154
103		191		79
-138		-139		-51
32		68		-35
193		-77		198
76		70		149
186		50		154
51		62		-162
-188		27		147
-29		12		77
135		-82		-59
21		173		139
156		39		4
-174		103		30
-131		199		-35
-21		-89		5
-15		-39		96
100		-45		-88
-27		-100		-169
180		5		-42
-35		-134		-119
-190		194		-23
66		4		-192
-2		-75		30
80		-105		141
23		-75		-53
115		-94		-8
-20		157		72
162		164		44
-31		81		144
45		-180		153
83		-89		-20
33		5		200
-52		-80		80
18		66		92
-72		-111		-182
79		67		2
-141		13		-135
-19		131		-32
168		159		-51
-172		-151		86
-37		185		-78
137		-119		-89
78		-46		143
-52		-98		-165
184		127		1
-88		-197		-118
172		171		103
113		68		-168
-105		127		-50
-190		108		163
-35		-196		26
68		189		128
158		-106		157
-60		42		-82
-48		76		-38
57		-119		-183
160		-53		-33
134		-55		74
179		-158		-3
66		-122		171
-187		-91		92
-133		-146		194
-61		134		98
119		-199		-8
-25		-33		91
-15		-32		-61
166		-95		149
93		127		90
-27		195		131
59		-187		-19
58		-182		29
149		-172		112
-144		190		109
-72		98		-69
-99		-106		137
86		-35		190
188		-26		118
-8		-102		-91
-65		108		-97
-196		129		-131
162		-141		-163
16		-112		-160
112		20		-101
-61		-101		70
-158		45		-81
42		-192		-149
13		-10		-53
62		-129		47
28		26		83
175		164		138
44		119		-149
131		156		69
189		157		18
121		-35		-10
130		59		115
81		80		66
149		76		185
-152		45		-101
63		85		-182
47		103		-94
-107		137		-91
-96		-53		30
-39		195		159
126		-160		45
-174		-61		84
130		-169		138
-125		115		157
-82		-141		-186
-84		-67		23
-187		135		-175
-107		4		142
-162		133		72
66		156		189
-132		-165		-83
-41		-6		-91
-83		-114		40
-132		-158		176
-73		-49		-71
-124		105		5
66		-106		-195
-182		-54		-82
-169		-166		-18
1		-197		38
-99		186		-119
-7		170		-112
138		-37		-138
-33		-151		-46
170		-163		-119
-33		115		-124
-155		128		-79
163		30		-23
-70		49		48
144		25		-115
127		-27		44
144		81		-77
149		-57		20
34		89		132
190		-114		-69
39		87		11
-11		-108		200
-75		-97		193
57		-138		71
-121		-2		45
-130		-119		28
98		-105		-93
-136		70		16
-65		-66		-123
2		-164		-61
-198		86		-106
-158		-181		-51
-150		-132		27
23		-70		-64
76		-178		-132
-39		-112		-75
-116		163		135
174		125		156
-126		-61		136
92		146		-69
149		120		-107
-167		-33		29
-110		198		-90
-168		68		-160
84		154		58
12		83		-124
-110		-114		-19
-150		-144		84
-170		14		-132
89		-64		-105
49		126		-97
23		-32		-46
71		88		-143
153		103		-184
150		-136		-104
-32		13		-44
-99		-7		42
69		-197		34
47		176		-80
-105		26		-159
194		189		122
88		-106		-125
-74		-154		29
195		74		-86
-86		145		118
102		63		159
127		171		-34
158		72		28
-39		-135		24
-116		-60		25
-130		159		164
-167		-10		80
-108		153		125
95		-77		-182
110		-148		189
-183		-60		29
12		184		-97
89		118		-129
163		137		-71
-192		43		106
-159		-26		146
4		190		81
5		110		149
33		-82		-75
63		-54		-176
-14		5		-119
-188		-98		-55
-33		-31		-108
-171		-138		178
153		-95		-120
-138		-78		39
177		-169		179
-8		33		178
148		112		-92
-10		84		-144
29		-129		-46
-160		-52		-30
-115		38		-90
-39		-90		42
-183		86		36
-70		-199		-121
98		142		108
141		193		50
-187		-122		72
-85		-166		-177
158		10		-99
-107		-86		-122
39		180		-31
66		129		24
-95		-68		-122
-8		-86		-103
92		70		-155
74		-8		180
162		120		193
172		3		23
-110		35		-139
42		100		75
191		186		89
102		-77		-122
-18		-150		-78
92		-18		159
-22		-7		-161
-159		59		168
128		-19		137
193		-137		-153
-87		-101		-173
147		193		-76
51		199		-32
-15		-25		-64
71		-121		136
49		5		-57
-89		-56		117
-58		-88		-101
170		107		-32
1		154		-57
133		-116		29
-173		-162		131
131		-88		148
83		86		-77
155		-122		177
-146		-147		152
-108		-163		164
-39		105		-190
96		-150		-78
66		88		-148
-62		163		-52
-153		125		-43
-37		152		-17
143		-121		110
106		147		-175
-126		-112		-42
-108		40		20
24		-169		-14
-145		124		104
49		-97		134
-75		48		-198
171		38		77
-140		-85		-150
-100		-197		-145
48		168		163
-96		-158		28
-162		-53		121
-1		107		83
-53		-37		13
-139		4		-94
57		-146		173
-102		-111		131
130		103		190
71		-163		109
16		114		32
86		-62		-123
-107		-30		26
10		-35		-161
-7		-107		156
96		197		85
100		-170		137
-195		134		177
148		123		64
178		-47		-121
129		183		-173
-61		38		-111
-52		-181		-103
-119		28		146
-85		-100		-25
99		-142		-48
15		49		-136
-183		-188		188
-160		-121		1
-141		-7		71
-23		176		-182
189		-68		97
-59		-199		89
-196		178		110
148		-67		123
-27		163		3
-176		-17		-193
27		50		-89
18		-9		150
139		146		-21
100		32		-151
169		-144		38
-33		83		-162
15		-134		76
52		-130		-131
173		97		-44
38		155		-40
-184		-140		9
-82		34		40
-90		147		142
200		-97		127
-90		-141		-9
8		-112		-26
-122		63		25
-51		5		126
-78		142		64
-118		-41		50
-25		185		-154
124		114		29
171		-137		88
-147		-41		-132
171		173		-84
175		184		-76
-11		180		82
-157		-149		164
64		-153		71
-11		127		-161
-117		-111		179
-143		129		145
120		13		-116
-76		150		-32
-87		89		-143
150		152		177
-85		173		-19
117		-27		63
124		-7		-174
8		129		-107
-187		134		-7
-6		-79		62
-140		-77		63
78		-40		-7
186		126		-167
-52		-107		99
184		-133		-27
178		-123		174
-118		136		125
133		103		188
-169		-24		-151
17		-91		-178
193		68		-179
1		-56		-135
176		-17		48
83		79		34
186		22		-107
-151		104		20
-199		-191		12
-78		140		-28
-104		-169		6
126		28		85
196		31		29
-132		9		173
171		17		15
-46		-65		119
134		-187		133
-162		-103		-156
-102		-123		175
-153		-151		82
-178		-15		89
125		96		43
172		-79		3
-175		-182		-48
-153		-57		38
-144		-91		17
-139		194		80
-98		12		-105
-25		166		93
186		189		95
-26		-192		-101
114		-12		172
164		174		126
-56		-26		157
190		127		-123
85		92		40
-45		-75		18
194		72		-44
-64		-64		-162
-183		-183		47
26		131		-15
171		-3		-89
-191		16		45
55		-60		85
69		73		135
-134		-84		-101
15		6		-151
-30		171		81
-53		7		-21
-60		-168		190
115		-50		-144
168		-7		-60
126		168		84
71		100		11
-132		119		-100
-34		-60		131
17		-196		-79
29		-100		-32
56		-63		-136
17		173		-134
182		118		-66
76		-120		-130
38		56		161
-170		5		-46
-114		2		-139
92		-153		-181
-47		-1		66
-68		92		-52
111		159		146
81		-187		-178
-39		-103		-83
-54		189		-117
-107		-174		129
69		-147		136
-26		17		77
14		-192		-115
108		-41		33
-9		103		21
-110		-147		-182
191		-92		190
120		-119		147
-24		5		-102
2		-39		68
34		23		-132
-198		-191		100
32		-36		41
50		-43		165
59		184		-157
136		81		-96
-158		61		112
-129		-182		53
104		-55		-18
-95		-122		-91
89		-59		-165
128		-78		84
51		94		-172
117		49		117
8		-60		127
48		83		159
-198		115		-108
6		39		-101
-130		67		173
44		32		-146
79		-17		11
50		-145		79
-111		103		12
-113		40		-63
159		178		-120
18		106		8
-77		-40		11
-198		-132		-20
-195		-27		-1
51		-47		176
199		-136		19
-96		93		137
155		29		-160
46		143		-87
154		-135		45
-132		-130		45
177		-96		144
122		59		114
-118		-198		-51
-8		-17		184
51		99		31
146		144		-58
176		-19		-168
3		-70		-121
-177		172		-170
119		-102		148
-146		189		-79
82		-162		116
168		122		-167
-170		184		60
117		-49		163
-78		1		48
81		143		63
131		-173		-184
83		105		150
-81		-197		-169
149		-68		165
162		-35		-136
-138		-39		-38
-77		24		161
-97		-102		35
-60		-63		129
-164		-22		71
-38		-175		109
26		-20		146
95		104		-45
-170		-159		-196
-25		-85		151
189		-162		-166
62		16		-197
-138		-112		176
-183		24		-23
42		-115		34
-7		-176		94
133		-125		-17
84		-64		-192
111		-14		152
109		-189		-51
-177		-148		-20
73		114		-116
-162		-20		16
3		-136		-12
43		-37		-81
-37		-94		31
41		-138		-121
50		-122		64
-175		140		73
163		40		157
-136		-70		-143
62		-107		26
-168		-132		124
104		164		-132
24		1		-11
-43		51		-175
-15		118		148
-162		-19		120
172		-27		51
100		127		57
-63		-96		-122
123		112		173
191		-132		158
147		-111		-126
-126		-32		156
28		-85		-117
59		-27		4
-125		-125		200
-57		-24		-72
-57		94		11
-59		93		-138
-110		46		-102
-196		-192		-18
-138		4		171
-36		-62		-11
149		59		-33
-102		-73		-167
173		-62		-182
-186		196		168
151		-130		62
75		-93		-154
83		-76		59
33		200		155
-144		97		144
-196		-79		-61
-169		-9		167
-158		163		-144
-183		-62		-191
-71		-121		154
189		-100		-127
33		-2		-61
143		-156		-60
12		198		133
172		17		-199
-123		112		49
-141		120		-22
-64		-12		-54
-181		129		-197
103		-174		-46
71		182		178
157		140		-23
-124		121		-140
-162		-24		-91
76		69		-130
-122		83		13
24		83		-194
-180		117		23
-61		-160		174
133		136		64
176		69		-90
-194		-77		136
93		-70		-30
73		189		71
119		-83		-39
16		179		-160
17		191		176
119		186		31
-116		89		176
-196		-167		82
104		-175		115
40		-1		157
81		96		37
-169		-114		-124
89		141		-94
176		164		147
-82		125		196
-98		-90		192
-1		87		3
-174		2		88
-87		-92		-53
3		-165		-118
-154		49		-188
-150		127		-13
-28		157		-88
139		-156		-153
-73		-63		129
9		-161		108
-55		-146		98
-67		20		98
53		164		31
156		59		-167
171		-9		-78
34		-99		70
-114		56		181
59		-66		155
-102		157		-92
12		50		-105
85		180		-154
21		-54		-82
200		-103		-14
-123		-125		-67
-32		11		75
-132		118		190
-85		-146		95
69		-98		-146
-124		-183		160
-197		110		125
57		-122		129
-39		-168		-129
-59		186		-51
-32		-114		118
60		3		-45
162		-67		-37
76		-117		48
-132		-79		127
51		195		159
-145		-1		149
137		-113		-88
-120		-199		67
-111		-98		84
-167		5		-174
-50		148		76
-7		-59		136
-13		142		2
-43		-167		165
-46		-137		-20
81		172		-109
-158		78		118
-78		187		-54
13		34		-55
59		-126		-44
144		-101		118
65		-119		7
45		-142		-129
72		-81		110
116		-32		118
93		80		-167
-92		-65		10
174		-151		-199
-33		40		187
-138		172		193
-64		31		-141
-23		6		152
-168		-160		-161
66		128		-137
-29		159		157
-123		-153		143
5		109		102
6		170		175
-23		-183		122
-124		83		-22
-162		61		169
-7		145		194
81		-185		172
-18		-55		67
-187		41		174
5		-15		41
84		169		42
59		13		120
-39		198		-36
194		-155		-61
80		-178		-178
-131		93		44
128		30		180
-105		103		156
135		109		193
-128		120		-61
120		-78		-143
76		-166		80
-153		127		89
72		-45		73
-194		-112		89
113		13		104
-90		-100		-56
-160		-121		-169
122		-141		143
-15		163		-52
51		-9		18
-41		-140		147
118		-147		-148
-191		144		-160
90		-121		13
-80		-187		-175
-90		54		-42
-64		73		-54
-41		25		160
-7		12		-91
79		-169		-72
-72		-166		-130
122		101		-87
-48		-93		159
183		62		-124
-57		-132		-138
-176		141		128
171		176		75
198		158		-182
-48		-168		122
145		-177		-92
105		186		5
131		148		59
28		-70		-140
-155		-25		85
143		-55		-130
125		-83		-22
-19		157		86
195		-193		-191
-179		-25		-178
-86		66		197
-3		-180		2
-154		144		-14
-93		-33		-15
-11		57		-94
-128		134		41
-121		34		-134
93		121		-75
31		190		-23
-128		-75		-82
-178		111		-98
-49		-152		129
-179		80		89
58		-108		-56
-91		-80		13
-70		191		-85
-35		100		36
-186		-90		-62
-67		156		156
-41		31		-123
127		42		120
106		-124		127
164		-58		-71
9		135		-43
168		179		-70
-106		190		-13
-194		23		135
-82		-165		10
-54		-75		94
139		-107		4
143		10		98
5		-101		-169
97		62		136
141		-64		68
86		-173		-9
-105		-195		-64
195		171		-112
133		197		105
153		-139		19
-197		-178		-99
-58		149		-37
142		196		-172
72		-62		-13
-9		82		-146
-46		165		106
-178		197		3
-54		-76		147
-153		-56		-10
11		28		73
100		143		164
128		-37		82
-114		197		-166
78		127		10
-182		-177		-108
-113		-183		-87
51		77		-99
62		93		-75
-123		170		-53
-96		80		-28
-74		17		43
89		168		-133
-138		24		112
-117		30		105
-161		155		91
-17		28		135
166		43		58
176		141		-72
2		-46		-190
-55		-39		173
-8		2		-137
-11		-114		-53
-141		157		-85
EOF