This is a problem file for the ILCS Maximum Satisfiability Problem. This problem is harder.


variables: 200
clauses: 1000

CLAUSES
30		196		165
118		93		92
99		-144		22
-67		120		-6
-18		-79		192
-130		43		103
-99		-73		16
124		166		135
182		193		-30
-10		8		145
-134		-81		-163
-142		185		-148
66		-25		164
-146		175		77
-89		152		121
-111		-139		-158
30		170		-24
101		-43		-51
52		-47		33
183		-119		40
-29		-85		1
-42		192		25
-82		-91		46
179		88		-118
176		56		103
97		-175		114
102		-34		134
-125		157		-103
194		83		121
154		-69		-157
-151		22		-129
-38		117		-122
23		191		-93
-162		167		-4
-120		-87		-149
-113		-62		-49
-144		-99		-125
-38		122		96
-24		138		-104
-90		8		-29
-164		27		48
126		196		-130
-88		-113		36
81		-49		46
136		26		139
-149		21		134
188		-47		-112
-66		120		-93
-6		-98		110
-177		-183		196
-71		7		-14
182		172		-2
-197		-104		1
-117		-45		8
173		-184		-28
-3		-92		30
176		-70		113
-65		145		-18
-169		-78		-84
139		17		-189
-193		-168		-1
-197		117		189
-186		123		68
152		73		-108
-139		133		-45
67		-23		77
-186		-111		53
-149		-166		-34
200		26		-104
124		172		-44
-63		193		-31
53		-51		114
-158		-3		29
82		-124		-107
178		152		66
196		-131		97
-134		-39		-23
-16		-133		6
103		18		-149
23		-47		48
-195		9		-157
-23		183		46
-171		194		184
104		-80		-172
-76		-142		-165
96		-84		132
-185		40		-7
80		-189		199
160		-184		-49
-94		109		95
97		-12		-73
-79		44		-160
-139		-112		-134
-194		65		195
194		-23		173
-145		-13		56
91		-20		179
-89		-115		11
-10		-169		-80
-108		54		-83
-177		40		160
161		195		184
-135		-152		-38
-30		49		-142
-119		-103		138
-99		83		-85
103		-62		-94
-113		-25		-132
56		-102		58
79		-120		174
34		112		82
-70		82		17
64		52		104
83		-33		-81
83		-50		-188
34		-92		173
-6		170		110
-15		42		27
-89		127		-79
-45		-128		74
165		-155		-148
161		186		-174
-74		51		-145
-34		-50		116
-189		13		-108
109		139		136
-16		31		-96
-24		68		-200
-194		-38		58
-23		136		24
-122		-83		56
-25		189		83
-164		-107		101
-181		-47		157
-169		40		-99
-166		-121		-68
-86		-13		-127
27		158		-102
12		131		62
-125		-148		-185
-162		-164		6
52		104		-149
-66		150		157
-149		-46		87
-100		191		-146
44		-90		104
-3		69		-92
69		-188		102
195		-28		-34
-169		-88		-74
88		101		116
-164		-92		198
67		114		18
76		178		112
115		-111		39
140		176		-48
142		123		33
-110		159		25
198		-184		-189
197		179		-66
117		-59		-185
-126		34		87
7		-162		64
-164		-182		157
-156		-77		72
-36		-86		156
70		-125		-180
-29		146		81
-147		111		37
-111		-113		157
53		175		-92
42		-158		-137
-127		-165		191
23		-12		-90
-194		87		35
-142		-95		-115
21		-52		-33
27		-25		-171
102		-188		170
46		155		138
-160		1		-181
22		-20		-60
-64		57		136
8		-189		-126
83		199		91
79		91		101
4		-144		-158
-10		37		6
-163		131		-126
64		163		-179
-38		76		120
139		36		-178
200		-93		-54
-13		-134		-1
-148		-143		-180
-132		-168		-184
168		87		-34
59		83		-186
7		-61		-20
64		190		-197
1		-1		169
65		27		-76
111		-54		-128
-20		-168		82
-3		152		164
146		57		179
-95		152		-189
-34		-3		155
-19		106		58
150		132		-81
-178		-178		-167
-74		20		-133
-163		-167		-54
-50		-131		-41
-158		-34		-71
138		121		159
17		194		-189
-128		103		155
-47		28		-105
-196		-185		-164
123		21		20
66		-197		-186
56		-82		-151
180		-63		78
100		63		181
119		132		57
-109		75		-21
-56		-148		186
-153		-41		-151
-130		-26		197
-50		-181		32
63		136		146
106		-13		-29
123		193		-85
97		114		60
-153		-120		-25
171		-85		130
20		11		-164
-60		-188		-94
-139		-35		79
-149		42		190
-187		101		-94
37		-55		-32
179		7		-181
83		-120		85
121		-166		-95
81		193		-137
-120		191		160
160		73		152
-58		105		83
-134		122		-105
46		131		36
-72		4		-14
-134		-166		-56
106		192		-84
-90		111		-38
-22		165		-189
-53		-85		-106
197		-194		53
-126		191		-144
-59		71		-29
152		27		27
-188		-185		-33
114		-6		198
4		-165		-167
9		94		109
155		183		39
-32		-174		-191
-176		192		73
27		22		33
-94		102		-99
-151		159		-87
-169		-134		-118
-150		-46		71
-105		-167		29
-116		188		-39
41		73		-60
72		85		10
-188		89		152
64		-153		199
-119		-84		64
-70		-51		122
72		92		12
-16		65		156
-42		-128		-142
-144		37		-140
-85		17		161
110		39		-41
-46		192		-29
53		-151		-66
-82		-73		159
-63		57		-168
-59		75		-81
182		39		-105
115		51		132
7		-114		116
-171		-114		145
-35		-80		-32
10		162		120
-183		100		124
124		18		-78
112		-50		-195
190		-111		-33
-132		-29		-73
-128		26		192
-116		20		117
110		-94		-63
-36		136		177
9		-170		80
-112		140		95
109		147		-39
40		-71		169
26		130		-89
-74		-149		67
-89		-122		-98
-98		-175		-155
-54		196		-28
134		190		51
42		-80		-186
-181		-43		76
-101		-77		-150
151		-127		23
-145		161		154
192		-166		-146
-150		-40		-127
55		-73		27
-45		-135		-113
18		23		75
-59		165		122
1		87		-155
20		-148		-75
-143		7		22
-71		30		86
-1		96		-70
67		-66		-75
-195		196		-109
-81		-171		110
-70		-45		199
180		22		73
184		76		-92
142		53		-162
-150		-6		-23
-192		-90		52
25		-195		-60
18		153		134
22		-93		15
127		44		188
-120		72		157
-61		141		-40
-30		144		63
-29		-40		79
159		-186		161
109		-177		-191
135		-136		-78
163		-162		-11
190		4		78
-107		-30		116
172		-113		59
-45		-62		88
51		148		-84
-50		-100		-192
198		-96		-63
-134		54		-15
-128		-77		19
131		-130		29
195		158		149
199		-40		25
-175		198		10
-31		125		-153
25		-130		-175
-37		87		132
-176		-164		-103
-188		-163		-28
191		94		-93
-1		-192		136
-199		-4		76
185		-180		36
35		-15		-69
62		-71		-118
-128		-145		159
20		-142		-8
74		145		70
-143		-103		-3
-119		-40		-39
189		-84		94
8		195		68
-80		-181		17
195		101		-125
-28		-195		-27
79		182		-91
-105		-5		-54
7		111		-74
-193		121		-195
-172		-94		91
66		-71		-55
135		21		105
-43		147		-78
79		9		40
-108		-94		44
-61		96		22
87		97		52
-116		-89		-15
-138		31		95
185		-110		23
-46		-134		186
163		-5		-198
-166		150		126
-177		4		-148
172		-31		78
95		-158		-86
-151		27		154
123		-32		127
-187		-129		198
-125		160		-59
50		-1		159
40		-31		-197
28		-131		-87
-26		191		106
51		178		-112
168		59		-112
-153		45		9
176		169		-122
165		151		165
-111		100		-133
169		184		159
130		-89		-42
38		123		-188
21		-115		-43
45		-115		-166
157		-198		-200
65		157		-71
45		96		-127
165		29		-5
-2		-22		91
25		27		-99
-47		-24		-45
168		130		183
115		-49		-121
88		-47		-45
53		159		-86
-113		144		-61
156		-38		-11
-157		192		-21
-23		193		-180
-150		-11		-67
163		36		65
44		73		101
92		52		99
30		-160		105
120		11		-17
-74		117		-64
-167		-166		71
-6		-33		-114
-155		-181		-111
-184		-91		3
11		110		134
32		-2		101
-68		-177		195
-81		-196		-100
58		196		115
-25		-133		-3
-82		-126		180
-84		-181		44
-199		82		56
-121		-167		-107
56		123		-191
-158		144		-47
-160		-60		143
9		148		-190
-173		-23		-91
72		17		102
45		113		13
-192		-116		-54
193		-46		47
111		-48		-196
156		18		135
-113		137		-151
52		-110		54
85		-53		-93
18		54		54
65		124		-34
140		-25		39
-14		-120		-167
-73		-186		129
-170		160		129
-9		-119		97
-62		159		53
128		76		62
-134		-76		-55
-26		200		59
152		-122		12
137		-189		155
150		11		181
49		116		-15
164		-145		-3
-134		-18		-38
-111		29		-93
181		-43		79
-159		-28		-154
-69		83		-94
-131		-18		-15
-156		143		-45
-170		-116		-69
-148		53		5
-42		-147		-65
-197		136		54
119		75		17
144		-29		192
4		-58		52
-142		124		-99
-77		-60		108
105		-176		37
180		-174		20
-60		-55		70
-90		-130		-58
187		11		69
188		22		154
-79		-107		64
103		14		-84
27		70		-17
-150		-190		-116
196		-187		-74
-2		40		-146
-164		-46		-101
-37		37		-183
-187		-129		-88
-174		123		-38
23		185		184
-167		-167		9
-80		179		46
107		-47		105
-170		-175		82
122		67		-61
174		-132		-35
78		-120		-122
-120		-13		131
-20		-154		-175
-98		-92		140
-149		-179		-32
181		-71		-125
115		121		-147
-171		-153		3
-32		7		16
-23		10		100
137		-168		47
-58		-55		173
-137		11		-162
-27		179		-117
22		-32		117
96		10		-180
-58		-190		-3
8		-71		195
-18		141		-126
60		146		66
41		73		114
-113		-67		-38
113		-109		-24
197		27		106
-130		187		48
199		-157		115
-200		16		-88
-62		135		22
132		129		-39
-146		178		160
165		-42		-182
-194		167		-116
-6		95		83
152		-73		171
196		-98		-174
-86		133		191
36		-190		-120
-28		-164		125
124		-34		51
-172		91		19
-159		-186		76
-68		154		7
-157		51		186
-125		-29		-105
92		181		145
-120		-185		119
86		161		30
-137		93		87
64		-153		190
-185		-151		93
156		-200		187
20		97		109
59		68		65
21		79		-48
-107		182		-132
-174		167		-50
89		96		-1
87		4		65
-35		-138		27
-60		-139		72
195		-160		-40
-176		-49		61
127		-110		198
173		161		58
142		105		-47
183		13		168
-139		93		-162
-138		-109		128
73		-192		82
27		-118		137
-134		-43		45
140		57		38
128		-55		-94
-46		-43		100
146		-153		166
133		44		68
-132		-87		7
-148		96		58
77		-145		-55
-93		72		108
-130		36		83
-86		-42		195
113		183		-155
67		138		66
32		173		-30
52		18		-57
-44		-54		110
-48		164		87
112		13		-39
142		193		-110
197		-134		-139
-197		154		-144
-127		147		-166
-164		158		-102
-35		95		-14
124		56		-73
-13		61		15
60		22		-28
161		-80		130
-25		157		-140
179		196		115
-147		123		67
-14		56		-200
56		-112		-118
-200		-166		138
157		51		-96
79		-149		37
186		-144		115
115		150		-72
-193		-14		-73
47		-73		-136
-20		-82		-168
3		134		-175
142		-118		121
200		-133		-93
-97		37		-89
122		115		-185
-136		108		136
-104		-81		83
28		-118		25
-152		-43		13
33		120		-134
55		-67		-138
-116		-165		55
120		-30		-59
-183		12		-68
153		-79		-196
-125		118		41
143		-81		-74
-7		-177		12
160		-34		149
-195		58		119
-145		-73		173
188		-167		160
-71		-74		76
-197		18		190
-192		-98		-4
179		57		132
124		75		-165
-186		-76		22
-28		127		-76
-109		41		-42
197		145		-69
18		-103		58
-39		111		-86
-51		57		139
199		34		-131
-167		-100		-40
112		159		71
47		-174		172
-89		88		16
-109		102		-190
-91		30		39
-105		40		-187
-105		168		-93
-45		24		18
156		91		173
-118		-111		198
190		62		112
10		-169		176
200		22		152
-41		-187		-149
-116		26		36
164		195		-125
124		-185		-3
-138		113		72
100		16		-70
-78		-2		-101
46		115		136
27		17		-87
-169		-50		-61
87		-144		184
-180		-58		-119
61		19		-31
-73		-17		-148
-30		-176		86
-50		-173		154
20		44		-188
-115		-28		74
180		-72		-134
-31		63		111
27		185		161
41		-16		-33
123		-10		181
45		-116		-134
-78		135		152
184		154		-166
-154		77		-137
-134		21		-188
-147		58		-131
192		83		105
-107		100		186
44		-119		-61
-128		-148		-157
173		-86		98
-177		-21		10
198		-115		10
-31		-30		182
-167		-118		-121
-160		-181		156
46		-166		114
-194		-162		-16
-157		165		-158
58		-84		67
108		115		161
-42		19		102
-103		-2		-167
159		173		-32
195		164		25
100		-93		101
-192		-47		165
-147		183		103
-119		-57		-178
184		23		-42
110		51		34
-70		143		21
199		-147		-59
-104		127		-162
91		179		-151
173		-34		145
18		-62		-164
-76		155		-150
-74		-144		23
-101		-146		-80
49		-54		-156
123		-166		-69
-149		139		132
8		198		-23
-150		-88		188
163		-70		-90
-60		-74		-136
-141		69		-181
24		193		-62
-150		113		-66
-123		7		-112
-113		-168		-108
110		138		-32
-46		62		-151
-100		-73		-175
137		106		179
-132		46		-5
60		-74		-2
194		-15		-169
163		18		-200
-157		139		95
52		75		-17
186		37		-118
-118		109		-54
-131		21		171
-144		-180		-22
-129		-16		-169
-96		-160		-50
-142		45		128
-190		141		-2
64		67		-180
152		58		127
46		123		-40
-106		-66		18
87		106		-37
126		187		-26
-137		-156		154
-192		-126		-73
121		2		-183
20		-120		57
-170		-51		15
-150		-93		134
56		-5		95
92		-109		199
-35		-112		83
-84		148		29
-92		-98		57
-173		-127		-131
151		-171		87
75		-169		172
-106		-106		83
76		195		-156
122		-135		-109
-133		-42		141
-129		-199		99
58		96		82
133		75		-97
-197		99		127
-80		124		-179
-82		-58		163
163		103		68
-1		-12		4
97		22		-154
-158		-107		-95
181		75		-58
195		37		181
97		-99		-119
-98		85		102
67		124		-131
150		-110		-177
-104		113		-121
61		-129		-115
-181		-125		-3
-200		-87		25
-175		-29		-115
-52		37		-187
188		-197		83
-149		-191		72
-73		124		41
21		-35		-184
-18		-174		85
117		-34		-122
4		169		-109
-146		-86		-30
-97		17		48
97		157		-54
-136		-155		-136
-62		157		199
176		72		-2
-129		43		139
-21		58		200
23		-27		60
97		25		-90
-130		132		46
75		-46		-166
54		20		-127
156		161		-94
156		26		36
127		-4		-90
21		-98		42
162		50		198
-41		-110		-150
-95		147		123
-174		46		59
65		49		191
-13		-88		20
154		-2		-28
-162		-164		-46
-190		-126		-162
-109		101		-187
44		92		-32
-122		98		177
113		133		-74
173		-100		80
34		183		105
-91		17		75
160		108		-28
-176		-14		-119
-98		-46		-132
143		-192		-166
13		-131		-39
135		-72		37
-134		-128		-187
-81		-64		-192
113		-114		-89
-52		115		-102
199		-100		128
-147		88		-139
-147		56		178
77		-190		-74
86		-106		189
196		-48		150
53		84		-148
17		33		-62
-17		-148		-134
52		-94		-198
-102		183		190
-132		-198		-66
153		162		-89
-56		-11		-81
45		-200		-180
-53		96		87
5		-129		151
110		-24		-91
108		-14		-149
-116		-176		22
23		55		-62
151		-148		-116
-59		-42		185
-78		-164		-75
152		-182		-38
66		-107		77
-92		180		123
23		-197		-85
-185		65		97
-129		-1		103
8		-60		-74
-17		-106		48
19		-93		-45
78		43		-34
-100		-155		103
-200		-128		167
-107		-35		-131
-181		-127		108
-93		-129		30
-6		-133		-169
48		141		183
-84		-132		-90
72		163		-153
-120		-171		-135
9		-104		-154
-143		-180		-198
10		-138		173
-123		-151		-32
-166		-142		64
106		-142		-160
-44		-70		-125
-3		-197		-53
133		-146		-181
-15		78		-91
-170		-5		12
-187		62		-15
-137		-86		102
-75		-14		182
146		-20		-164
-38		-149		163
-73		16		-188
-94		-124		-145
1		36		54
-89		73		12
152		-171		-183
111		-13		-139
200		47		-74
2		-11		156
-43		-116		-84
-56		-49		-106
194		37		-102
146		33		192
-24		-31		124
-55		19		172
-143		57		-47
91		-195		114
118		-38		116
194		135		75
-126		61		-81
28		-170		-116
-186		174		124
-16		-163		-118
-180		-187		-126
-157		-125		150
106		-147		-52
183		173		-51
37		74		-34
-55		-174		-72
102		177		-78
113		57		14
-162		21		-67
37		69		-40
-86		-10		-130
112		-178		157
82		98		115
-170		-116		116
198		58		5
44		86		161
18		-102		-53
-35		-96		191
-20		176		72
-88		-136		-144
170		-137		-136
111		94		112
-137		114		100
154		-70		99
-124		-160		101
159		-171		118
-80		151		-108
-159		137		-185
103		66		106
49		-155		192
-3		161		-149
28		-129		-186
-144		66		105
92		-18		142
EOF