This is a problem file for the ILCS Traveling Salesperson Problem.


cities: 1000


NODE_COORD_SECTION
1 213.40 263.84
2 831.64 30.34
3 950.84 286.85
4 563.42 277.39
5 954.31 93.68
6 438.71 639.26
7 90.96 519.32
8 380.12 414.80
9 579.91 644.34
10 297.19 669.92
11 307.24 26.33
12 93.95 325.90
13 757.69 565.20
14 383.13 612.15
15 641.96 724.83
16 875.63 979.67
17 39.93 234.58
18 278.97 480.21
19 12.82 120.52
20 455.55 712.67
21 636.54 445.51
22 476.34 350.74
23 342.87 353.82
24 880.24 712.99
25 218.84 119.75
26 441.45 318.78
27 611.02 435.67
28 937.99 187.07
29 169.89 505.75
30 272.65 385.64
31 903.71 951.27
32 635.42 229.49
33 218.05 459.04
34 599.33 856.38
35 240.34 899.92
36 401.98 459.39
37 188.79 584.52
38 33.38 861.73
39 549.98 743.22
40 983.02 403.87
41 684.96 670.15
42 393.31 522.21
43 283.38 556.85
44 368.65 604.26
45 296.59 91.90
46 310.32 507.08
47 847.87 69.91
48 808.95 685.27
49 810.09 246.86
50 132.69 883.84
51 754.49 23.86
52 472.64 318.92
53 717.77 982.06
54 129.99 26.50
55 402.29 76.27
56 637.09 426.67
57 522.72 868.79
58 700.68 233.57
59 557.96 113.21
60 946.11 661.20
61 90.39 995.08
62 559.80 148.44
63 589.60 894.90
64 611.52 118.87
65 775.57 348.11
66 51.64 303.13
67 610.53 99.19
68 649.38 661.10
69 197.50 74.39
70 804.44 301.32
71 426.86 342.15
72 201.96 220.32
73 454.81 883.65
74 984.35 979.08
75 369.23 575.39
76 127.31 696.88
77 300.75 471.48
78 793.45 759.41
79 464.07 324.20
80 729.33 822.87
81 370.54 11.12
82 250.94 54.18
83 24.63 333.96
84 816.14 423.54
85 219.40 39.59
86 36.06 483.57
87 308.76 644.79
88 234.35 748.24
89 793.11 339.48
90 693.64 705.94
91 910.55 632.44
92 749.64 200.18
93 220.80 354.76
94 2.38 139.05
95 305.74 889.97
96 197.03 873.31
97 345.06 981.58
98 930.78 415.74
99 91.21 147.78
100 195.69 120.84
101 67.51 560.82
102 759.68 329.64
103 539.33 643.75
104 388.11 655.96
105 237.14 45.21
106 966.29 124.59
107 630.56 23.38
108 912.32 738.10
109 261.48 50.76
110 833.38 669.86
111 331.59 677.09
112 117.80 329.43
113 842.56 162.76
114 138.50 327.19
115 714.01 818.61
116 657.03 645.33
117 143.78 572.79
118 638.43 349.73
119 872.76 420.00
120 660.85 577.05
121 966.65 346.41
122 901.91 260.53
123 923.68 72.44
124 242.74 321.68
125 69.26 192.68
126 154.26 40.44
127 314.40 525.83
128 789.26 390.42
129 443.02 430.25
130 487.08 376.57
131 505.24 60.92
132 941.96 418.52
133 388.18 320.96
134 980.81 57.77
135 384.95 562.58
136 865.35 841.48
137 389.91 256.33
138 703.21 985.18
139 775.18 857.27
140 405.76 770.12
141 920.01 816.82
142 257.93 521.33
143 664.35 616.59
144 330.93 617.95
145 783.54 248.01
146 906.72 442.51
147 932.92 284.28
148 71.81 905.73
149 404.45 483.39
150 872.35 602.71
151 91.63 184.98
152 936.73 506.68
153 327.33 312.78
154 650.53 58.07
155 822.62 804.08
156 615.24 585.74
157 24.49 716.96
158 456.56 688.42
159 803.00 420.63
160 754.17 771.59
161 990.03 362.86
162 274.23 136.94
163 655.87 422.84
164 908.56 105.64
165 184.53 797.48
166 580.72 291.79
167 984.93 803.04
168 678.49 735.04
169 880.09 751.25
170 194.00 351.57
171 966.06 272.87
172 795.33 979.46
173 632.77 320.97
174 418.02 215.96
175 827.72 383.38
176 102.73 983.82
177 729.22 100.75
178 612.69 728.76
179 910.74 799.80
180 850.81 904.49
181 404.22 544.89
182 873.54 25.14
183 223.36 323.45
184 600.82 221.45
185 38.47 721.52
186 808.33 51.75
187 226.63 402.60
188 805.54 717.16
189 567.54 294.77
190 504.17 334.90
191 4.82 692.60
192 277.92 801.14
193 694.76 596.90
194 562.57 884.17
195 190.36 949.73
196 824.29 80.29
197 900.44 289.51
198 947.35 421.17
199 399.33 770.19
200 756.10 309.32
201 720.15 196.57
202 177.49 106.19
203 575.05 50.98
204 757.20 326.62
205 295.22 895.52
206 161.23 615.97
207 295.63 515.91
208 899.67 711.63
209 266.97 72.39
210 330.38 626.46
211 760.88 716.64
212 31.10 88.74
213 897.23 728.04
214 151.31 937.12
215 455.25 384.37
216 317.83 797.35
217 538.68 194.85
218 614.74 808.25
219 515.11 171.73
220 226.09 643.78
221 839.70 235.96
222 588.96 294.83
223 788.51 208.32
224 784.66 384.53
225 389.83 235.72
226 154.20 326.94
227 439.81 129.64
228 548.44 3.51
229 165.47 88.76
230 208.96 847.01
231 899.67 820.08
232 871.37 910.85
233 577.69 363.87
234 77.29 100.78
235 901.17 91.43
236 196.52 95.23
237 846.30 686.60
238 786.76 524.92
239 127.69 736.26
240 300.23 688.91
241 943.38 766.79
242 547.29 219.53
243 230.17 990.90
244 357.55 409.04
245 646.41 611.23
246 642.77 426.35
247 962.77 379.08
248 744.11 19.62
249 364.59 678.11
250 717.14 424.63
251 131.03 683.89
252 483.36 298.41
253 39.20 58.97
254 480.64 753.20
255 342.87 23.52
256 875.83 429.21
257 788.53 520.05
258 903.63 132.88
259 272.79 651.83
260 680.68 586.79
261 6.33 668.25
262 454.37 289.94
263 448.65 770.17
264 132.46 467.22
265 942.49 767.14
266 160.33 449.58
267 19.12 875.60
268 557.88 259.49
269 283.43 248.88
270 180.33 171.20
271 510.26 604.34
272 66.17 622.90
273 735.40 213.56
274 637.82 442.72
275 475.45 611.23
276 746.83 712.76
277 997.43 130.35
278 418.31 462.78
279 229.52 193.42
280 849.75 269.03
281 926.50 13.42
282 810.72 575.74
283 863.19 426.25
284 410.09 912.93
285 962.17 644.14
286 849.45 23.91
287 471.50 509.48
288 76.53 401.98
289 602.09 831.47
290 554.54 235.09
291 132.35 689.74
292 991.76 331.25
293 20.31 447.57
294 452.15 888.78
295 457.29 95.10
296 29.97 90.01
297 399.13 911.30
298 244.70 496.84
299 793.63 490.43
300 759.71 309.15
301 803.47 724.90
302 480.55 831.31
303 761.78 722.92
304 241.25 487.95
305 53.81 16.32
306 860.69 398.05
307 638.88 614.66
308 136.68 236.76
309 21.65 479.46
310 555.43 415.61
311 974.09 521.31
312 455.63 867.07
313 614.17 759.44
314 624.79 560.20
315 264.78 579.69
316 608.35 111.66
317 71.76 245.39
318 431.62 407.46
319 209.19 160.46
320 569.47 297.39
321 206.32 964.21
322 834.97 440.97
323 234.41 631.92
324 451.14 784.47
325 774.63 7.94
326 475.19 314.17
327 935.00 344.10
328 335.06 282.17
329 269.26 613.48
330 217.14 2.34
331 98.13 681.05
332 223.17 474.12
333 407.97 749.04
334 326.29 393.49
335 183.04 729.22
336 27.57 861.20
337 909.99 258.04
338 209.29 9.89
339 686.34 14.66
340 632.66 982.25
341 308.30 840.32
342 785.57 256.84
343 104.50 294.19
344 176.65 727.66
345 910.33 149.45
346 138.19 595.71
347 943.32 567.13
348 199.26 525.27
349 741.03 360.84
350 33.00 485.38
351 305.63 57.65
352 601.43 45.40
353 980.36 613.99
354 404.17 676.96
355 134.80 325.17
356 595.82 254.60
357 980.82 234.89
358 694.04 257.81
359 895.48 966.33
360 369.62 113.78
361 572.38 598.63
362 483.16 33.59
363 591.03 431.86
364 917.88 342.87
365 58.79 684.03
366 268.85 325.50
367 981.66 147.28
368 676.62 250.65
369 238.89 740.17
370 276.48 490.51
371 890.02 499.69
372 592.86 585.16
373 553.63 883.59
374 614.89 708.43
375 873.08 941.44
376 629.79 774.70
377 991.22 919.23
378 912.99 707.00
379 574.49 567.84
380 454.38 548.50
381 696.11 61.30
382 618.17 450.77
383 56.32 270.32
384 272.94 833.54
385 558.27 443.39
386 18.92 155.31
387 689.86 879.11
388 223.76 72.69
389 5.77 898.00
390 479.96 707.43
391 816.97 209.45
392 469.78 117.34
393 54.24 494.15
394 334.28 62.43
395 234.29 969.63
396 676.16 671.06
397 285.79 727.97
398 794.40 828.71
399 881.52 142.09
400 528.84 283.31
401 610.65 781.35
402 150.16 429.69
403 922.52 474.48
404 84.84 112.11
405 695.47 840.30
406 701.23 676.49
407 87.88 746.94
408 731.53 486.66
409 591.52 500.83
410 396.54 562.16
411 936.04 210.51
412 599.25 588.64
413 767.23 347.86
414 869.51 961.88
415 84.71 395.05
416 191.17 863.68
417 369.16 196.64
418 96.78 35.63
419 59.29 40.09
420 194.82 579.75
421 409.31 222.16
422 366.96 393.98
423 268.40 999.67
424 583.18 538.85
425 996.45 307.74
426 237.19 380.69
427 745.55 966.68
428 347.27 400.15
429 182.09 561.52
430 662.46 574.66
431 604.97 122.96
432 27.41 300.42
433 649.13 837.54
434 307.34 891.23
435 650.17 695.90
436 427.37 551.43
437 306.01 816.78
438 152.85 713.88
439 843.54 205.27
440 320.24 767.57
441 764.68 330.66
442 965.44 776.96
443 157.85 810.48
444 118.13 402.48
445 849.37 696.63
446 853.54 497.77
447 377.63 620.16
448 974.78 286.35
449 194.76 66.54
450 744.85 430.86
451 692.33 691.94
452 888.68 300.55
453 880.38 685.76
454 74.68 928.77
455 813.82 633.40
456 556.60 976.82
457 241.28 894.89
458 809.98 274.31
459 157.52 250.45
460 142.57 838.65
461 719.41 904.86
462 41.86 953.53
463 842.36 929.60
464 173.79 685.85
465 842.00 866.50
466 519.12 777.00
467 460.42 889.38
468 75.24 72.74
469 441.98 664.89
470 896.59 472.09
471 735.81 189.37
472 588.66 215.98
473 140.03 876.71
474 256.48 482.74
475 810.18 700.48
476 128.83 944.31
477 923.98 906.20
478 711.45 787.47
479 650.08 935.15
480 458.18 950.77
481 511.97 388.83
482 86.76 947.32
483 114.28 779.60
484 516.40 351.90
485 819.65 737.24
486 832.33 492.63
487 353.86 670.48
488 102.84 530.04
489 316.20 825.89
490 813.50 965.65
491 673.12 691.05
492 875.67 141.52
493 737.67 574.81
494 853.02 554.21
495 177.93 287.76
496 422.66 506.83
497 206.71 945.81
498 960.12 346.98
499 102.60 641.34
500 101.70 360.43
501 360.31 904.58
502 663.09 72.94
503 868.15 636.20
504 590.45 253.50
505 803.36 181.41
506 471.27 824.20
507 121.65 492.53
508 277.66 820.92
509 513.16 945.24
510 209.64 539.47
511 926.58 962.19
512 173.97 531.89
513 314.58 325.50
514 285.91 408.04
515 710.36 755.86
516 427.44 674.86
517 724.18 453.07
518 605.34 768.53
519 27.96 802.73
520 273.37 101.47
521 984.36 599.52
522 750.85 996.52
523 816.49 598.46
524 385.18 714.18
525 668.16 139.20
526 833.82 157.36
527 431.69 562.24
528 433.86 398.12
529 730.62 131.20
530 758.36 542.65
531 350.29 182.41
532 543.15 47.50
533 753.97 796.41
534 100.01 668.59
535 887.19 509.12
536 792.96 710.43
537 671.87 108.18
538 555.11 327.05
539 211.34 177.45
540 715.40 716.12
541 940.32 571.73
542 739.89 571.16
543 922.04 270.07
544 243.17 161.95
545 19.21 207.22
546 37.92 896.76
547 44.37 730.72
548 751.18 801.95
549 56.38 703.35
550 242.55 20.08
551 498.45 716.59
552 826.99 159.04
553 346.24 123.39
554 485.50 323.52
555 7.13 106.80
556 186.78 553.17
557 415.80 42.23
558 602.33 778.56
559 442.52 971.99
560 125.46 483.90
561 553.24 938.06
562 649.38 679.97
563 471.21 896.21
564 666.06 941.15
565 357.00 753.16
566 270.68 507.99
567 934.90 695.33
568 217.68 223.73
569 744.75 580.85
570 224.92 798.64
571 784.57 919.66
572 154.82 912.40
573 20.44 484.75
574 480.96 2.14
575 128.39 972.62
576 359.43 84.39
577 577.89 758.64
578 466.84 560.38
579 67.21 147.02
580 687.83 450.03
581 457.33 544.35
582 966.52 253.97
583 836.13 678.80
584 618.27 720.47
585 824.56 378.60
586 33.81 861.67
587 747.07 326.82
588 699.33 633.58
589 783.25 736.98
590 659.53 986.46
591 415.25 663.92
592 812.76 384.37
593 393.73 186.29
594 930.10 176.25
595 228.49 657.29
596 156.53 597.72
597 893.02 774.89
598 341.31 240.22
599 953.13 900.84
600 76.28 341.64
601 866.48 760.49
602 177.58 749.79
603 938.81 497.76
604 337.32 251.07
605 59.32 833.25
606 777.14 330.23
607 487.49 701.37
608 34.78 793.41
609 731.59 582.15
610 860.25 649.84
611 748.70 442.02
612 491.98 167.26
613 222.07 436.09
614 968.65 972.18
615 985.51 459.11
616 680.45 882.40
617 660.70 317.88
618 119.98 654.76
619 486.34 62.97
620 445.56 895.97
621 848.97 679.03
622 116.94 395.24
623 880.16 826.29
624 110.23 191.65
625 740.11 547.90
626 508.63 370.99
627 40.59 426.44
628 592.95 424.46
629 268.51 10.32
630 527.72 502.72
631 529.10 365.14
632 265.56 600.21
633 152.80 894.73
634 669.54 169.61
635 581.39 380.03
636 307.07 668.63
637 136.58 964.28
638 800.87 69.67
639 325.08 96.74
640 287.10 395.78
641 325.86 777.01
642 232.07 437.61
643 950.48 309.46
644 841.81 234.26
645 724.94 695.52
646 386.25 476.02
647 535.25 942.84
648 366.86 483.83
649 413.46 516.73
650 242.43 985.43
651 156.76 940.62
652 610.26 360.08
653 240.83 840.00
654 234.40 76.31
655 625.58 523.27
656 99.38 171.77
657 723.21 131.94
658 176.87 752.10
659 133.07 827.95
660 649.73 843.34
661 52.92 435.28
662 444.67 885.86
663 993.78 831.05
664 133.38 193.74
665 597.42 317.04
666 656.21 808.35
667 854.31 301.67
668 239.03 385.24
669 166.75 871.99
670 196.78 110.48
671 75.06 765.50
672 608.68 201.66
673 596.14 214.48
674 752.81 403.31
675 765.97 614.77
676 350.76 585.51
677 867.00 399.09
678 932.51 721.48
679 495.95 724.40
680 366.30 409.78
681 706.62 40.66
682 478.89 308.54
683 867.07 291.03
684 317.46 421.54
685 892.91 791.63
686 585.35 261.08
687 631.17 539.24
688 768.29 287.42
689 826.60 243.01
690 289.72 779.30
691 78.23 730.07
692 427.77 982.65
693 966.28 70.70
694 941.34 455.22
695 369.17 517.55
696 889.29 442.35
697 505.69 787.00
698 403.86 34.40
699 286.61 300.14
700 334.60 305.11
701 897.02 331.27
702 510.40 974.34
703 29.41 89.68
704 954.34 327.76
705 630.80 645.09
706 894.88 252.94
707 434.68 587.00
708 331.55 976.55
709 612.89 496.24
710 342.26 796.37
711 349.69 862.23
712 52.37 375.36
713 902.34 143.00
714 755.39 844.17
715 135.38 733.89
716 0.81 526.46
717 908.41 984.61
718 882.28 746.96
719 219.67 453.44
720 953.24 876.60
721 116.35 613.58
722 824.42 724.08
723 622.67 636.35
724 7.67 918.69
725 455.45 427.31
726 421.51 790.37
727 957.88 538.23
728 955.42 34.79
729 278.90 135.04
730 72.00 886.41
731 334.29 110.17
732 192.38 896.91
733 644.28 368.42
734 344.52 450.07
735 704.72 584.58
736 756.88 159.45
737 543.00 465.67
738 680.02 736.11
739 37.81 328.30
740 752.69 265.99
741 135.33 836.69
742 388.71 708.07
743 312.38 210.44
744 568.58 370.19
745 29.19 847.49
746 468.07 84.63
747 381.44 66.83
748 542.30 6.18
749 421.20 927.51
750 79.80 254.25
751 291.83 557.61
752 213.97 870.87
753 670.43 262.06
754 247.37 492.21
755 858.21 219.31
756 996.98 950.60
757 382.34 806.00
758 751.08 497.60
759 721.46 484.32
760 584.53 433.83
761 799.84 974.34
762 420.87 857.24
763 116.52 672.25
764 778.01 476.17
765 923.37 673.84
766 314.91 110.31
767 248.50 498.44
768 974.16 577.72
769 622.72 517.84
770 37.64 50.32
771 963.08 76.37
772 511.98 809.88
773 850.51 517.47
774 702.29 575.44
775 315.74 44.70
776 284.72 936.88
777 342.98 645.97
778 454.41 317.49
779 136.73 356.73
780 754.36 998.18
781 484.05 771.19
782 568.84 184.37
783 904.40 886.67
784 702.10 883.90
785 831.84 173.36
786 874.88 203.62
787 446.68 534.21
788 470.75 723.46
789 462.36 611.00
790 6.73 599.05
791 969.97 202.57
792 160.43 878.67
793 389.12 378.02
794 767.33 602.53
795 44.03 656.67
796 440.99 265.99
797 763.49 39.46
798 566.27 191.89
799 507.53 327.61
800 905.47 963.84
801 815.37 818.38
802 743.59 142.38
803 169.82 81.10
804 490.21 808.77
805 175.21 730.95
806 855.14 525.74
807 350.00 155.31
808 28.21 281.48
809 610.76 690.17
810 795.25 526.38
811 119.34 99.57
812 839.88 175.18
813 732.37 608.89
814 440.13 407.21
815 967.94 278.87
816 215.93 134.75
817 705.52 42.89
818 783.68 151.58
819 458.98 18.05
820 708.85 308.02
821 887.82 958.56
822 427.32 313.08
823 801.53 915.25
824 915.99 608.18
825 11.25 284.79
826 581.12 817.36
827 532.36 379.09
828 844.50 715.80
829 978.50 568.41
830 410.01 560.93
831 640.97 82.99
832 840.83 896.34
833 515.02 720.38
834 820.21 307.12
835 371.63 876.63
836 822.50 592.72
837 981.33 487.22
838 638.57 160.79
839 672.25 526.80
840 373.65 817.12
841 692.90 831.95
842 395.96 683.15
843 697.75 398.57
844 602.39 326.43
845 198.39 67.88
846 173.08 890.57
847 608.04 147.91
848 667.06 804.82
849 117.73 530.98
850 798.06 81.14
851 95.04 608.87
852 236.55 134.63
853 462.29 988.41
854 836.04 45.13
855 740.53 683.71
856 43.55 451.70
857 194.76 592.89
858 868.03 809.01
859 687.03 157.67
860 198.60 116.45
861 117.99 493.78
862 108.72 303.75
863 703.55 931.93
864 984.68 833.41
865 820.17 833.74
866 43.06 141.27
867 728.74 292.51
868 722.08 84.03
869 595.40 261.33
870 220.86 709.34
871 562.53 557.26
872 585.90 514.68
873 24.33 721.38
874 695.81 15.15
875 279.88 858.05
876 117.79 960.05
877 332.38 681.60
878 963.15 601.25
879 500.15 932.80
880 431.08 530.36
881 3.73 2.62
882 224.97 906.78
883 640.65 902.28
884 722.96 902.26
885 870.80 784.01
886 213.61 425.70
887 936.81 489.26
888 553.92 560.74
889 907.88 594.04
890 279.42 982.17
891 236.12 969.53
892 553.54 962.12
893 715.95 83.01
894 808.89 47.14
895 329.35 120.83
896 583.88 662.60
897 830.25 690.50
898 705.61 559.90
899 332.29 679.12
900 874.04 122.05
901 998.42 793.55
902 144.34 495.87
903 644.44 692.09
904 23.24 843.12
905 127.68 402.42
906 693.37 906.11
907 653.38 448.91
908 294.24 34.20
909 449.09 262.85
910 190.83 557.64
911 93.39 675.82
912 572.90 749.97
913 200.13 551.00
914 595.44 246.31
915 783.65 994.02
916 228.45 228.76
917 720.00 157.37
918 983.75 442.57
919 825.18 57.67
920 317.68 23.86
921 59.76 965.77
922 919.46 926.94
923 427.46 677.77
924 9.23 381.34
925 396.26 671.40
926 110.82 69.44
927 488.29 316.39
928 28.66 322.60
929 220.65 394.37
930 295.74 93.44
931 96.65 776.94
932 59.46 133.66
933 173.97 464.61
934 186.11 496.01
935 465.16 851.67
936 209.02 391.42
937 945.17 166.97
938 497.88 127.61
939 756.36 645.97
940 322.51 522.36
941 541.78 214.10
942 850.05 112.25
943 883.20 159.01
944 740.48 403.61
945 128.71 661.16
946 221.92 430.81
947 761.93 224.25
948 927.21 282.83
949 906.31 785.80
950 752.97 962.85
951 491.66 513.22
952 916.19 544.58
953 462.39 719.39
954 124.28 321.31
955 818.51 901.05
956 566.23 574.68
957 71.86 773.38
958 551.66 882.55
959 926.88 947.21
960 250.46 14.96
961 724.13 782.50
962 367.30 804.00
963 629.75 778.21
964 629.50 720.92
965 239.77 215.05
966 221.30 970.56
967 893.00 359.66
968 30.70 28.56
969 297.91 305.47
970 649.86 163.81
971 34.73 419.16
972 585.09 227.66
973 94.92 647.24
974 358.95 988.55
975 672.59 44.66
976 355.94 959.10
977 535.34 738.00
978 238.73 709.16
979 145.92 112.18
980 914.83 684.18
981 89.90 403.36
982 81.55 603.46
983 679.75 595.67
984 681.68 712.20
985 742.68 523.10
986 584.64 621.42
987 297.35 86.65
988 980.23 304.96
989 197.41 139.64
990 709.08 982.51
991 419.25 640.95
992 48.33 195.11
993 859.11 262.20
994 435.22 154.99
995 120.93 321.54
996 882.64 185.73
997 390.63 965.68
998 73.91 631.37
999 337.62 981.63
1000 547.91 499.26
EOF
